{
    "R": [
        "R",
        "r",
        "right",
        "Right",
        "RIGHT"
    ],
    "L": [
        "L",
        "l",
        "left",
        "Left",
        "LEFT"
    ],
    "F": [
        "front",
        "Front",
        "FRONT",
        "Fr",
        "fr",
        "FR"
    ],
    "B": [
        "back",
        "Back",
        "BACK",
        "Bk",
        "bk",
        "BK"
    ],
    "U": [
        "top",
        "Top",
        "TOP"
    ],
    "D": [
        "bot",
        "Bot",
        "BOT"
    ],
    "C": [
        "Center",
        "CENTER",
        "c",
        "C",
        "cen",
        "CEN"
    ]
}